{
  "development": {
    "username": "postgres",
    "password": "root",
    "database": "college-data",
    "host": "127.0.0.1",
    "dialect": "postgres"
  },
  "test": {
    "username": "postgres",
    "password": "root",
    "database": "college-data",
    "host": "127.0.0.1",
    "dialect": "postgres"
  },
  "production": {
    "username": "postgres",
    "password": "root",
    "database": "college-data",
    "host": "127.0.0.1",
    "dialect": "postgres"
  }
}
